{
    "key": "9379",
    "ecgId": "9379",
    "time": "2017-09-14T12:57:34.106",
    "errorDesc": null,
    "inference": {
        "syndromic_ecg_analysis": [
            {
                "description": "Normal morphology"
            }
        ]
    },
    "basic_parameters": {
        "heart_rate": "120",
        "rhythm": "448 JuncTACHY JUNCTIONAL TACHYCARDIA",
        "PR_interval": "0",
        "QRS_interval": "102",
        "QRS_axis": "44",
        "QT_interval": "344",
        "QTc_interval": "486"
    },
    "all_leads": {
        "Lead III": {
            "QRS_uV": 380,
            "ST_uV": 11,
            "T_wave_uV": 59,
            "P_wave_uV": 0
        },
        "Lead V6": {
            "QRS_uV": 726,
            "ST_uV": 21,
            "T_wave_uV": 129,
            "P_wave_uV": 0
        },
        "Lead II": {
            "QRS_uV": 1023,
            "ST_uV": 32,
            "T_wave_uV": 187,
            "P_wave_uV": 0
        },
        "Lead V5": {
            "QRS_uV": 1054,
            "ST_uV": 20,
            "T_wave_uV": 156,
            "P_wave_uV": 0
        },
        "Lead V4": {
            "QRS_uV": 1230,
            "ST_uV": 36,
            "T_wave_uV": 209,
            "P_wave_uV": 0
        },
        "Lead V3": {
            "QRS_uV": 796,
            "ST_uV": 25,
            "T_wave_uV": 182,
            "P_wave_uV": 0
        },
        "Lead AvL": {
            "QRS_uV": 187,
            "ST_uV": 5,
            "T_wave_uV": 35,
            "P_wave_uV": 0
        },
        "Lead V2": {
            "QRS_uV": 1071,
            "ST_uV": 13,
            "T_wave_uV": 97,
            "P_wave_uV": 0
        },
        "Lead V1": {
            "QRS_uV": 602,
            "ST_uV": 8,
            "T_wave_uV": 60,
            "P_wave_uV": 0
        },
        "Lead AvF": {
            "QRS_uV": 700,
            "ST_uV": 22,
            "T_wave_uV": 122,
            "P_wave_uV": 0
        },
        "Lead I": {
            "QRS_uV": 644,
            "ST_uV": 20,
            "T_wave_uV": 126,
            "P_wave_uV": 0
        },
        "Lead AvR": {
            "QRS_uV": 835,
            "ST_uV": -27,
            "T_wave_uV": 0,
            "P_wave_uV": 0
        }
    },
    "universal_ecg_score_system": {
        "overall": "62",
        "stamina": "42",
        "myocardial": "78",
        "psycho_emotional": "43",
        "heart_rhythm_disturbances": "63"
    }
}