{
    "key": "9382",
    "ecgId": "9382",
    "time": "2017-09-14T12:59:47.834",
    "errorDesc": null,
    "inference": {
        "syndromic_ecg_analysis": [
            {
                "description": "Short PR interval"
            }
        ]
    },
    "basic_parameters": {
        "heart_rate": "69",
        "rhythm": "110 AFib normal ATRIAL FIBRILLATION/FLUTTER CVR, 38832 SVC PREMATURE SUPRAVENTRICULAR CONTRACTION",
        "PR_interval": "96",
        "QRS_interval": "92",
        "QRS_axis": "40",
        "QT_interval": "342",
        "QTc_interval": "381"
    },
    "all_leads": {
        "Lead III": {
            "QRS_uV": 318,
            "ST_uV": 12,
            "T_wave_uV": 0,
            "P_wave_uV": 0
        },
        "Lead V6": {
            "QRS_uV": 706,
            "ST_uV": 0,
            "T_wave_uV": 0,
            "P_wave_uV": 0
        },
        "Lead II": {
            "QRS_uV": 845,
            "ST_uV": 26,
            "T_wave_uV": 0,
            "P_wave_uV": 0
        },
        "Lead V5": {
            "QRS_uV": 994,
            "ST_uV": 6,
            "T_wave_uV": 7,
            "P_wave_uV": 0
        },
        "Lead V4": {
            "QRS_uV": 1093,
            "ST_uV": 18,
            "T_wave_uV": 0,
            "P_wave_uV": 0
        },
        "Lead V3": {
            "QRS_uV": 1111,
            "ST_uV": 30,
            "T_wave_uV": 37,
            "P_wave_uV": 0
        },
        "Lead AvL": {
            "QRS_uV": 164,
            "ST_uV": 1,
            "T_wave_uV": 3,
            "P_wave_uV": 0
        },
        "Lead V2": {
            "QRS_uV": 925,
            "ST_uV": 34,
            "T_wave_uV": 38,
            "P_wave_uV": 0
        },
        "Lead V1": {
            "QRS_uV": 558,
            "ST_uV": 12,
            "T_wave_uV": 13,
            "P_wave_uV": 0
        },
        "Lead AvF": {
            "QRS_uV": 579,
            "ST_uV": 18,
            "T_wave_uV": 19,
            "P_wave_uV": 0
        },
        "Lead I": {
            "QRS_uV": 467,
            "ST_uV": 15,
            "T_wave_uV": 16,
            "P_wave_uV": 0
        },
        "Lead AvR": {
            "QRS_uV": 656,
            "ST_uV": -20,
            "T_wave_uV": 0,
            "P_wave_uV": 0
        }
    },
    "universal_ecg_score_system": {
        "overall": "52",
        "stamina": "66",
        "myocardial": "67",
        "psycho_emotional": "65",
        "heart_rhythm_disturbances": "100"
    }
}