{
    "key": "9383",
    "ecgId": "9383",
    "time": "2017-09-14T13:00:19.564",
    "errorDesc": null,
    "inference": {
        "syndromic_ecg_analysis": [
            {
                "description": "Short PR interval"
            }
        ]
    },
    "basic_parameters": {
        "heart_rate": "70",
        "rhythm": "340 AFib normal ATRIAL FIBRILLATION/FLUTTER CVR, 0 MissBeat MISSED BEAT",
        "PR_interval": "94",
        "QRS_interval": "108",
        "QRS_axis": "39",
        "QT_interval": "346",
        "QTc_interval": "384"
    },
    "all_leads": {
        "Lead III": {
            "QRS_uV": 325,
            "ST_uV": 6,
            "T_wave_uV": 11,
            "P_wave_uV": 0
        },
        "Lead V6": {
            "QRS_uV": 709,
            "ST_uV": -2,
            "T_wave_uV": 3,
            "P_wave_uV": 0
        },
        "Lead II": {
            "QRS_uV": 886,
            "ST_uV": 13,
            "T_wave_uV": 29,
            "P_wave_uV": 0
        },
        "Lead V5": {
            "QRS_uV": 1001,
            "ST_uV": 1,
            "T_wave_uV": 11,
            "P_wave_uV": 0
        },
        "Lead V4": {
            "QRS_uV": 1134,
            "ST_uV": 7,
            "T_wave_uV": 21,
            "P_wave_uV": 0
        },
        "Lead V3": {
            "QRS_uV": 1139,
            "ST_uV": 25,
            "T_wave_uV": 36,
            "P_wave_uV": 0
        },
        "Lead AvL": {
            "QRS_uV": 173,
            "ST_uV": 0,
            "T_wave_uV": 3,
            "P_wave_uV": 0
        },
        "Lead V2": {
            "QRS_uV": 943,
            "ST_uV": 27,
            "T_wave_uV": 36,
            "P_wave_uV": 0
        },
        "Lead V1": {
            "QRS_uV": 566,
            "ST_uV": 10,
            "T_wave_uV": 11,
            "P_wave_uV": 0
        },
        "Lead AvF": {
            "QRS_uV": 601,
            "ST_uV": 9,
            "T_wave_uV": 20,
            "P_wave_uV": 0
        },
        "Lead I": {
            "QRS_uV": 512,
            "ST_uV": 7,
            "T_wave_uV": 17,
            "P_wave_uV": 0
        },
        "Lead AvR": {
            "QRS_uV": 683,
            "ST_uV": -9,
            "T_wave_uV": 0,
            "P_wave_uV": 0
        }
    },
    "universal_ecg_score_system": {
        "overall": "52",
        "stamina": "59",
        "myocardial": "71",
        "psycho_emotional": "73",
        "heart_rhythm_disturbances": "100"
    }
}