{
    "key": "9367",
    "ecgId": "9367",
    "time": "2017-09-14T12:49:48.154",
    "errorDesc": null,
    "inference": {
        "syndromic_ecg_analysis": [
            {
                "description": "Late QRS transition in left precordials, positional variance"
            },
            {
                "description": "Possible ischemic ST-T changes compatible with subendocardial injury in inferoapical leads"
            },
            {
                "description": "Possible ishemic ST-T changes compatible with subendocardial injury in lateral leads"
            },
            {
                "description": "Possible ischemic ST-T changes compatible with subendocardial injury in anterior leads"
            },
            {
                "description": "Possible ischemic ST-T changes compatible with subendocardial injury in anterolateral leads"
            }
        ]
    },
    "basic_parameters": {
        "heart_rate": "60",
        "rhythm": "572 NSR SINUS RHYTHM",
        "PR_interval": "170",
        "QRS_interval": "106",
        "QRS_axis": "37",
        "QT_interval": "290",
        "QTc_interval": "290"
    },
    "all_leads": {
        "Lead III": {
            "QRS_uV": 603,
            "ST_uV": -190,
            "T_wave_uV": 0,
            "P_wave_uV": 36
        },
        "Lead V6": {
            "QRS_uV": 1310,
            "ST_uV": -429,
            "T_wave_uV": 0,
            "P_wave_uV": 65
        },
        "Lead II": {
            "QRS_uV": 975,
            "ST_uV": -616,
            "T_wave_uV": 0,
            "P_wave_uV": 110
        },
        "Lead V5": {
            "QRS_uV": 1859,
            "ST_uV": -523,
            "T_wave_uV": 0,
            "P_wave_uV": 81
        },
        "Lead V4": {
            "QRS_uV": 1934,
            "ST_uV": -683,
            "T_wave_uV": 0,
            "P_wave_uV": 95
        },
        "Lead V3": {
            "QRS_uV": 796,
            "ST_uV": -623,
            "T_wave_uV": 0,
            "P_wave_uV": 65
        },
        "Lead AvL": {
            "QRS_uV": 181,
            "ST_uV": -119,
            "T_wave_uV": 0,
            "P_wave_uV": 18
        },
        "Lead V2": {
            "QRS_uV": 315,
            "ST_uV": -327,
            "T_wave_uV": 0,
            "P_wave_uV": 57
        },
        "Lead V1": {
            "QRS_uV": 152,
            "ST_uV": -202,
            "T_wave_uV": 0,
            "P_wave_uV": 47
        },
        "Lead AvF": {
            "QRS_uV": 1077,
            "ST_uV": -403,
            "T_wave_uV": 0,
            "P_wave_uV": 73
        },
        "Lead I": {
            "QRS_uV": 641,
            "ST_uV": -422,
            "T_wave_uV": 0,
            "P_wave_uV": 72
        },
        "Lead AvR": {
            "QRS_uV": 706,
            "ST_uV": 521,
            "T_wave_uV": 0,
            "P_wave_uV": 0
        }
    },
    "universal_ecg_score_system": {
        "overall": "61",
        "stamina": "34",
        "myocardial": "63",
        "psycho_emotional": "53",
        "heart_rhythm_disturbances": "100"
    }
}