{
    "key": "9392",
    "ecgId": "9392",
    "time": "2017-09-14T13:04:42.534",
    "errorDesc": null,
    "inference": {
        "syndromic_ecg_analysis": [
            {
                "description": "Normal morphology"
            }
        ]
    },
    "basic_parameters": {
        "heart_rate": "75",
        "rhythm": "582 NSR SINUS RHYTHM, 20558 SVC PREMATURE SUPRAVENTRICULAR CONTRACTION",
        "PR_interval": "194",
        "QRS_interval": "86",
        "QRS_axis": "30",
        "QT_interval": "376",
        "QTc_interval": "421"
    },
    "all_leads": {
        "Lead III": {
            "QRS_uV": 385,
            "ST_uV": 20,
            "T_wave_uV": 65,
            "P_wave_uV": 38
        },
        "Lead V6": {
            "QRS_uV": 739,
            "ST_uV": 49,
            "T_wave_uV": 158,
            "P_wave_uV": 73
        },
        "Lead II": {
            "QRS_uV": 1044,
            "ST_uV": 59,
            "T_wave_uV": 208,
            "P_wave_uV": 117
        },
        "Lead V5": {
            "QRS_uV": 1071,
            "ST_uV": 58,
            "T_wave_uV": 192,
            "P_wave_uV": 94
        },
        "Lead V4": {
            "QRS_uV": 1253,
            "ST_uV": 81,
            "T_wave_uV": 254,
            "P_wave_uV": 110
        },
        "Lead V3": {
            "QRS_uV": 1386,
            "ST_uV": 32,
            "T_wave_uV": 191,
            "P_wave_uV": 76
        },
        "Lead AvL": {
            "QRS_uV": 189,
            "ST_uV": 9,
            "T_wave_uV": 38,
            "P_wave_uV": 20
        },
        "Lead V2": {
            "QRS_uV": 1128,
            "ST_uV": 19,
            "T_wave_uV": 105,
            "P_wave_uV": 64
        },
        "Lead V1": {
            "QRS_uV": 638,
            "ST_uV": 11,
            "T_wave_uV": 63,
            "P_wave_uV": 52
        },
        "Lead AvF": {
            "QRS_uV": 713,
            "ST_uV": 40,
            "T_wave_uV": 137,
            "P_wave_uV": 78
        },
        "Lead I": {
            "QRS_uV": 655,
            "ST_uV": 38,
            "T_wave_uV": 141,
            "P_wave_uV": 78
        },
        "Lead AvR": {
            "QRS_uV": 120,
            "ST_uV": -49,
            "T_wave_uV": 0,
            "P_wave_uV": 0
        }
    },
    "universal_ecg_score_system": {
        "overall": "83",
        "stamina": "74",
        "myocardial": "78",
        "psycho_emotional": "77",
        "heart_rhythm_disturbances": "100"
    }
}