{
    "key": "9403",
    "ecgId": "9403",
    "time": "2017-09-14T13:09:47.809",
    "errorDesc": null,
    "inference": {
        "syndromic_ecg_analysis": [
            {
                "description": "Short PR interval"
            }
        ]
    },
    "basic_parameters": {
        "heart_rate": "80",
        "rhythm": "92 Junc.Tachy JUNCTIONAL TACHYCARDIA",
        "PR_interval": "66",
        "QRS_interval": "110",
        "QRS_axis": "37",
        "QT_interval": "364",
        "QTc_interval": "420"
    },
    "all_leads": {
        "Lead III": {
            "QRS_uV": 383,
            "ST_uV": 74,
            "T_wave_uV": 122,
            "P_wave_uV": 0
        },
        "Lead V6": {
            "QRS_uV": 740,
            "ST_uV": -4,
            "T_wave_uV": 103,
            "P_wave_uV": 0
        },
        "Lead II": {
            "QRS_uV": 1046,
            "ST_uV": 91,
            "T_wave_uV": 251,
            "P_wave_uV": 0
        },
        "Lead V5": {
            "QRS_uV": 1073,
            "ST_uV": -9,
            "T_wave_uV": 122,
            "P_wave_uV": 0
        },
        "Lead V4": {
            "QRS_uV": 1258,
            "ST_uV": 3,
            "T_wave_uV": 173,
            "P_wave_uV": 0
        },
        "Lead V3": {
            "QRS_uV": 1340,
            "ST_uV": 19,
            "T_wave_uV": 161,
            "P_wave_uV": 47
        },
        "Lead AvL": {
            "QRS_uV": 192,
            "ST_uV": -29,
            "T_wave_uV": 0,
            "P_wave_uV": 117
        },
        "Lead V2": {
            "QRS_uV": 1095,
            "ST_uV": 11,
            "T_wave_uV": 86,
            "P_wave_uV": 44
        },
        "Lead V1": {
            "QRS_uV": 613,
            "ST_uV": 1,
            "T_wave_uV": 47,
            "P_wave_uV": 36
        },
        "Lead AvF": {
            "QRS_uV": 714,
            "ST_uV": 82,
            "T_wave_uV": 186,
            "P_wave_uV": 0
        },
        "Lead I": {
            "QRS_uV": 658,
            "ST_uV": 2,
            "T_wave_uV": 112,
            "P_wave_uV": 50
        },
        "Lead AvR": {
            "QRS_uV": 108,
            "ST_uV": -55,
            "T_wave_uV": 0,
            "P_wave_uV": 0
        }
    },
    "universal_ecg_score_system": {
        "overall": "66",
        "stamina": "33",
        "myocardial": "76",
        "psycho_emotional": "59",
        "heart_rhythm_disturbances": "100"
    }
}