{
    "key": "9423",
    "ecgId": "9423",
    "time": "2017-09-14T13:25:17.137",
    "errorDesc": null,
    "inference": {
        "syndromic_ecg_analysis": [
            {
                "description": "Normal morphology"
            }
        ]
    },
    "basic_parameters": {
        "heart_rate": "80",
        "rhythm": "474 NSR SINUS RHYTHM, 0 Pvc.Left + NSR Sinus rhythm with occasional premature ventricular complexes (left ventricular) (6 per min), 7332 Pvc.Left + NSR Sinus rhythm with occasional premature ventricular complexes (left ventricular)",
        "PR_interval": "198",
        "QRS_interval": "82",
        "QRS_axis": "30",
        "QT_interval": "346",
        "QTc_interval": "380"
    },
    "all_leads": {
        "Lead III": {
            "QRS_uV": 383,
            "ST_uV": 21,
            "T_wave_uV": 69,
            "P_wave_uV": 40
        },
        "Lead V6": {
            "QRS_uV": 735,
            "ST_uV": 54,
            "T_wave_uV": 154,
            "P_wave_uV": 68
        },
        "Lead II": {
            "QRS_uV": 1038,
            "ST_uV": 61,
            "T_wave_uV": 214,
            "P_wave_uV": 117
        },
        "Lead V5": {
            "QRS_uV": 1068,
            "ST_uV": 63,
            "T_wave_uV": 186,
            "P_wave_uV": 87
        },
        "Lead V4": {
            "QRS_uV": 1237,
            "ST_uV": 88,
            "T_wave_uV": 247,
            "P_wave_uV": 102
        },
        "Lead V3": {
            "QRS_uV": 1282,
            "ST_uV": 29,
            "T_wave_uV": 183,
            "P_wave_uV": 70
        },
        "Lead AvL": {
            "QRS_uV": 181,
            "ST_uV": 10,
            "T_wave_uV": 38,
            "P_wave_uV": 18
        },
        "Lead V2": {
            "QRS_uV": 1052,
            "ST_uV": 18,
            "T_wave_uV": 102,
            "P_wave_uV": 60
        },
        "Lead V1": {
            "QRS_uV": 591,
            "ST_uV": 11,
            "T_wave_uV": 62,
            "P_wave_uV": 50
        },
        "Lead AvF": {
            "QRS_uV": 710,
            "ST_uV": 40,
            "T_wave_uV": 141,
            "P_wave_uV": 78
        },
        "Lead I": {
            "QRS_uV": 653,
            "ST_uV": 39,
            "T_wave_uV": 145,
            "P_wave_uV": 79
        },
        "Lead AvR": {
            "QRS_uV": 118,
            "ST_uV": -50,
            "T_wave_uV": 0,
            "P_wave_uV": 0
        }
    },
    "universal_ecg_score_system": {
        "overall": "69",
        "stamina": "40",
        "myocardial": "76",
        "psycho_emotional": "57",
        "heart_rhythm_disturbances": "100"
    }
}