{
    "key": "9426",
    "ecgId": "9426",
    "time": "2017-09-14T13:26:46.112",
    "errorDesc": null,
    "inference": {
        "syndromic_ecg_analysis": [
            {
                "description": "Normal morphology"
            }
        ]
    },
    "basic_parameters": {
        "heart_rate": "80",
        "rhythm": "15144 NSR SINUS RHYTHM, 0 Pvc.Left + NSR Sinus rhythm with occasional premature ventricular complexes (left ventricular) (21 per min), 3742 Pvc.Left + NSR Sinus rhythm with occasional premature ventricular complexes (left ventricular)",
        "PR_interval": "134",
        "QRS_interval": "110",
        "QRS_axis": "29",
        "QT_interval": "376",
        "QTc_interval": "357"
    },
    "all_leads": {
        "Lead III": {
            "QRS_uV": 385,
            "ST_uV": -22,
            "T_wave_uV": 0,
            "P_wave_uV": 0
        },
        "Lead V6": {
            "QRS_uV": 749,
            "ST_uV": 7,
            "T_wave_uV": 113,
            "P_wave_uV": 0
        },
        "Lead II": {
            "QRS_uV": 1046,
            "ST_uV": 4,
            "T_wave_uV": 153,
            "P_wave_uV": 67
        },
        "Lead V5": {
            "QRS_uV": 1075,
            "ST_uV": 4,
            "T_wave_uV": 136,
            "P_wave_uV": 0
        },
        "Lead V4": {
            "QRS_uV": 1260,
            "ST_uV": 18,
            "T_wave_uV": 187,
            "P_wave_uV": 0
        },
        "Lead V3": {
            "QRS_uV": 1246,
            "ST_uV": 44,
            "T_wave_uV": 192,
            "P_wave_uV": 73
        },
        "Lead AvL": {
            "QRS_uV": 196,
            "ST_uV": 24,
            "T_wave_uV": 53,
            "P_wave_uV": 22
        },
        "Lead V2": {
            "QRS_uV": 1025,
            "ST_uV": 34,
            "T_wave_uV": 114,
            "P_wave_uV": 63
        },
        "Lead V1": {
            "QRS_uV": 576,
            "ST_uV": 20,
            "T_wave_uV": 70,
            "P_wave_uV": 51
        },
        "Lead AvF": {
            "QRS_uV": 714,
            "ST_uV": -9,
            "T_wave_uV": 89,
            "P_wave_uV": 0
        },
        "Lead I": {
            "QRS_uV": 658,
            "ST_uV": 19,
            "T_wave_uV": 123,
            "P_wave_uV": 47
        },
        "Lead AvR": {
            "QRS_uV": 158,
            "ST_uV": -15,
            "T_wave_uV": 0,
            "P_wave_uV": 0
        }
    },
    "universal_ecg_score_system": {
        "overall": "55",
        "stamina": "35",
        "myocardial": "67",
        "psycho_emotional": "57",
        "heart_rhythm_disturbances": "100"
    }
}