{
    "key": "9372",
    "ecgId": "9372",
    "time": "2017-09-14T12:52:25.950",
    "errorDesc": null,
    "inference": {
        "syndromic_ecg_analysis": [
            {
                "description": "Possible ischemic ST-T changes compatible with subendocardial injury in inferoapical leads"
            },
            {
                "description": "Possible ishemic ST-T changes compatible with subendocardial injury in lateral leads"
            },
            {
                "description": "Possible ischemic ST-T changes compatible with subendocardial injury in anterior leads"
            },
            {
                "description": "Possible ischemic ST-T changes compatible with subendocardial injury in anterolateral leads"
            }
        ]
    },
    "basic_parameters": {
        "heart_rate": "60",
        "rhythm": "308 NSR SINUS RHYTHM",
        "PR_interval": "176",
        "QRS_interval": "96",
        "QRS_axis": "38",
        "QT_interval": "394",
        "QTc_interval": "394"
    },
    "all_leads": {
        "Lead III": {
            "QRS_uV": 492,
            "ST_uV": -69,
            "T_wave_uV": 0,
            "P_wave_uV": 37
        },
        "Lead V6": {
            "QRS_uV": 741,
            "ST_uV": -163,
            "T_wave_uV": 0,
            "P_wave_uV": 72
        },
        "Lead II": {
            "QRS_uV": 1294,
            "ST_uV": -231,
            "T_wave_uV": 0,
            "P_wave_uV": 112
        },
        "Lead V5": {
            "QRS_uV": 1046,
            "ST_uV": -198,
            "T_wave_uV": 0,
            "P_wave_uV": 92
        },
        "Lead V4": {
            "QRS_uV": 1552,
            "ST_uV": -255,
            "T_wave_uV": 0,
            "P_wave_uV": 109
        },
        "Lead V3": {
            "QRS_uV": 801,
            "ST_uV": -246,
            "T_wave_uV": 0,
            "P_wave_uV": 68
        },
        "Lead AvL": {
            "QRS_uV": 181,
            "ST_uV": -46,
            "T_wave_uV": 0,
            "P_wave_uV": 19
        },
        "Lead V2": {
            "QRS_uV": 327,
            "ST_uV": -122,
            "T_wave_uV": 0,
            "P_wave_uV": 58
        },
        "Lead V1": {
            "QRS_uV": 159,
            "ST_uV": -77,
            "T_wave_uV": 0,
            "P_wave_uV": 47
        },
        "Lead AvF": {
            "QRS_uV": 883,
            "ST_uV": -150,
            "T_wave_uV": 0,
            "P_wave_uV": 75
        },
        "Lead I": {
            "QRS_uV": 642,
            "ST_uV": -160,
            "T_wave_uV": 0,
            "P_wave_uV": 74
        },
        "Lead AvR": {
            "QRS_uV": 0,
            "ST_uV": 196,
            "T_wave_uV": 0,
            "P_wave_uV": 0
        }
    },
    "universal_ecg_score_system": {
        "overall": "67",
        "stamina": "35",
        "myocardial": "72",
        "psycho_emotional": "53",
        "heart_rhythm_disturbances": "100"
    }
}