{
    "key": "9454",
    "ecgId": "9454",
    "time": "2017-09-14T13:39:17.019",
    "errorDesc": null,
    "inference": {
        "syndromic_ecg_analysis": [
            {
                "description": "Non systematic minor intraventricular block"
            },
            {
                "description": "Left QRS axis deviation"
            },
            {
                "description": "Late QRS transition in left precordials, positional variance"
            },
            {
                "description": "Complete right bundle branch block"
            },
            {
                "description": "Atypical complete right bundle branch block"
            },
            {
                "description": "Inferior infarction cannot be ruled out"
            }
        ]
    },
    "basic_parameters": {
        "heart_rate": "80",
        "rhythm": "578 NSR+IVCD NSR + IVCD",
        "PR_interval": "196",
        "QRS_interval": "126",
        "QRS_axis": "-73",
        "QT_interval": "362",
        "QTc_interval": "418"
    },
    "all_leads": {
        "Lead III": {
            "QRS_uV": 1627,
            "ST_uV": -40,
            "T_wave_uV": 0,
            "P_wave_uV": 32
        },
        "Lead V6": {
            "QRS_uV": 492,
            "ST_uV": 41,
            "T_wave_uV": 141,
            "P_wave_uV": 82
        },
        "Lead II": {
            "QRS_uV": 372,
            "ST_uV": 38,
            "T_wave_uV": 196,
            "P_wave_uV": 121
        },
        "Lead V5": {
            "QRS_uV": 743,
            "ST_uV": 46,
            "T_wave_uV": 188,
            "P_wave_uV": 98
        },
        "Lead V4": {
            "QRS_uV": 867,
            "ST_uV": 55,
            "T_wave_uV": 190,
            "P_wave_uV": 116
        },
        "Lead V3": {
            "QRS_uV": 625,
            "ST_uV": 0,
            "T_wave_uV": 122,
            "P_wave_uV": 62
        },
        "Lead AvL": {
            "QRS_uV": 1529,
            "ST_uV": 58,
            "T_wave_uV": 358,
            "P_wave_uV": 28
        },
        "Lead V2": {
            "QRS_uV": 305,
            "ST_uV": -9,
            "T_wave_uV": 118,
            "P_wave_uV": 55
        },
        "Lead V1": {
            "QRS_uV": 473,
            "ST_uV": -64,
            "T_wave_uV": 0,
            "P_wave_uV": 40
        },
        "Lead AvF": {
            "QRS_uV": 782,
            "ST_uV": -1,
            "T_wave_uV": 0,
            "P_wave_uV": 77
        },
        "Lead I": {
            "QRS_uV": 1411,
            "ST_uV": 77,
            "T_wave_uV": 452,
            "P_wave_uV": 73
        },
        "Lead AvR": {
            "QRS_uV": 643,
            "ST_uV": -58,
            "T_wave_uV": 0,
            "P_wave_uV": 0
        }
    },
    "universal_ecg_score_system": {
        "overall": "65",
        "stamina": "52",
        "myocardial": "61",
        "psycho_emotional": "66",
        "heart_rhythm_disturbances": "100"
    }
}
