{
    "key": "9463",
    "ecgId": "9463",
    "time": "2017-09-14T13:42:41.215",
    "errorDesc": null,
    "inference": {
        "syndromic_ecg_analysis": [
            {
                "description": "Normal morphology"
            }
        ]
    },
    "basic_parameters": {
        "heart_rate": "80",
        "rhythm": "72 AFib rapid ATRIAL FIBRILLATION/FLUTTER RVR, 39484 SVC PREMATURE SUPRAVENTRICULAR CONTRACTION",
        "PR_interval": "148",
        "QRS_interval": "112",
        "QRS_axis": "45",
        "QT_interval": "310",
        "QTc_interval": "447"
    },
    "all_leads": {
        "Lead III": {
            "QRS_uV": 378,
            "ST_uV": -48,
            "T_wave_uV": 0,
            "P_wave_uV": 0
        },
        "Lead V6": {
            "QRS_uV": 764,
            "ST_uV": -66,
            "T_wave_uV": 0,
            "P_wave_uV": 0
        },
        "Lead II": {
            "QRS_uV": 692,
            "ST_uV": -142,
            "T_wave_uV": 0,
            "P_wave_uV": 0
        },
        "Lead V5": {
            "QRS_uV": 1104,
            "ST_uV": -76,
            "T_wave_uV": 0,
            "P_wave_uV": 0
        },
        "Lead V4": {
            "QRS_uV": 1264,
            "ST_uV": -112,
            "T_wave_uV": 0,
            "P_wave_uV": 0
        },
        "Lead V3": {
            "QRS_uV": 856,
            "ST_uV": -68,
            "T_wave_uV": 0,
            "P_wave_uV": 0
        },
        "Lead AvL": {
            "QRS_uV": 149,
            "ST_uV": -24,
            "T_wave_uV": 0,
            "P_wave_uV": 0
        },
        "Lead V2": {
            "QRS_uV": 310,
            "ST_uV": -42,
            "T_wave_uV": 0,
            "P_wave_uV": 0
        },
        "Lead V1": {
            "QRS_uV": 142,
            "ST_uV": -28,
            "T_wave_uV": 0,
            "P_wave_uV": 0
        },
        "Lead AvF": {
            "QRS_uV": 714,
            "ST_uV": -95,
            "T_wave_uV": 0,
            "P_wave_uV": 0
        },
        "Lead I": {
            "QRS_uV": 486,
            "ST_uV": -94,
            "T_wave_uV": 0,
            "P_wave_uV": 0
        },
        "Lead AvR": {
            "QRS_uV": 0,
            "ST_uV": 118,
            "T_wave_uV": 162,
            "P_wave_uV": 0
        }
    },
    "universal_ecg_score_system": {
        "overall": "40",
        "stamina": "42",
        "myocardial": "75",
        "psycho_emotional": "45",
        "heart_rhythm_disturbances": "0"
    }
}