{
    "key": "9465",
    "ecgId": "9465",
    "time": "2017-09-14T13:43:25.817",
    "errorDesc": null,
    "inference": {
        "syndromic_ecg_analysis": [
            {
                "description": "Abnormal ECG"
            }
        ]
    },
    "basic_parameters": {
        "heart_rate": "30",
        "rhythm": "0 SinBRADY SINUS BRADYCARDIA (30 bpm)",
        "PR_interval": "182",
        "QRS_interval": "112",
        "QRS_axis": "29",
        "QT_interval": "392",
        "QTc_interval": "301"
    },
    "all_leads": {
        "Lead III": {
            "QRS_uV": 391,
            "ST_uV": 13,
            "T_wave_uV": 64,
            "P_wave_uV": 38
        },
        "Lead V6": {
            "QRS_uV": 750,
            "ST_uV": 27,
            "T_wave_uV": 104,
            "P_wave_uV": 0
        },
        "Lead II": {
            "QRS_uV": 1029,
            "ST_uV": 32,
            "T_wave_uV": 194,
            "P_wave_uV": 112
        },
        "Lead V5": {
            "QRS_uV": 1081,
            "ST_uV": 28,
            "T_wave_uV": 122,
            "P_wave_uV": 0
        },
        "Lead V4": {
            "QRS_uV": 1282,
            "ST_uV": 52,
            "T_wave_uV": 175,
            "P_wave_uV": 0
        },
        "Lead V3": {
            "QRS_uV": 1254,
            "ST_uV": 13,
            "T_wave_uV": 169,
            "P_wave_uV": 69
        },
        "Lead AvL": {
            "QRS_uV": 179,
            "ST_uV": 3,
            "T_wave_uV": 33,
            "P_wave_uV": 18
        },
        "Lead V2": {
            "QRS_uV": 1022,
            "ST_uV": 15,
            "T_wave_uV": 96,
            "P_wave_uV": 58
        },
        "Lead V1": {
            "QRS_uV": 582,
            "ST_uV": 8,
            "T_wave_uV": 59,
            "P_wave_uV": 48
        },
        "Lead AvF": {
            "QRS_uV": 708,
            "ST_uV": 23,
            "T_wave_uV": 129,
            "P_wave_uV": 76
        },
        "Lead I": {
            "QRS_uV": 662,
            "ST_uV": 20,
            "T_wave_uV": 133,
            "P_wave_uV": 76
        },
        "Lead AvR": {
            "QRS_uV": 127,
            "ST_uV": -26,
            "T_wave_uV": 0,
            "P_wave_uV": 0
        }
    },
    "universal_ecg_score_system": {
        "overall": "37",
        "stamina": "24",
        "myocardial": "72",
        "psycho_emotional": "52",
        "heart_rhythm_disturbances": "0"
    }
}
